{"failedCount":0,"prefixedPath":"src\/test\/java\/users\/get\/get-user.feature","packageQualifiedName":"src.test.java.users.get.get-user","loopIndex":-1,"relativePath":"src\/test\/java\/users\/get\/get-user.feature","scenarioResults":[{"sectionIndex":1,"stepResults":[{"result":{"nanos":260848700,"startTime":1697575171606,"endTime":1697575171867,"millis":260.8487,"status":"passed"},"step":{"line":9,"prefix":"*","index":0,"text":"def jsonRes = read(\"..\/json\/list_users.json\")"}},{"result":{"nanos":846900,"startTime":1697575171870,"endTime":1697575171871,"millis":0.8469,"status":"passed"},"step":{"line":10,"prefix":"Given","index":1,"text":"url \"https:\/\/reqres.in\/api\/user?page=1\""}},{"result":{"nanos":1212931200,"startTime":1697575171871,"endTime":1697575173084,"millis":1212.9312,"status":"passed"},"step":{"line":11,"prefix":"When","index":2,"text":"method get"},"stepLog":"15:39:32.631 request:\n1 > GET https:\/\/reqres.in\/api\/user?page=1\n1 > Host: reqres.in\n1 > Connection: Keep-Alive\n1 > User-Agent: Apache-HttpClient\/4.5.14 (Java\/11.0.20.1)\n1 > Accept-Encoding: gzip,deflate\n\n\n15:39:33.080 response time in milliseconds: 446\n1 < 200\n1 < Date: Tue, 17 Oct 2023 20:39:02 GMT\n1 < Content-Type: application\/json; charset=utf-8\n1 < Transfer-Encoding: chunked\n1 < Connection: keep-alive\n1 < X-Powered-By: Express\n1 < Access-Control-Allow-Origin: *\n1 < Etag: W\/\"2c1-N6Rqerxquq2kgQhL51EiSg4x0R8\"\n1 < Via: 1.1 vegur\n1 < Cache-Control: max-age=14400\n1 < CF-Cache-Status: HIT\n1 < Age: 208\n1 < Report-To: {\"endpoints\":[{\"url\":\"https:\\\/\\\/a.nel.cloudflare.com\\\/report\\\/v3?s=KYWgsPIxkOEQH%2BCKs7JHr1Z5RWRdoOd2X6ENdS48ZSu6dpp0CUft%2BEFM6dP9bCF3aFKwFDoANHSHFl4Q9IYd0DTGspwVBlCQ5MNWzVXnMtk1VUgg7vI67EFN9Q%3D%3D\"}],\"group\":\"cf-nel\",\"max_age\":604800}\n1 < NEL: {\"success_fraction\":0,\"report_to\":\"cf-nel\",\"max_age\":604800}\n1 < Vary: Accept-Encoding\n1 < Server: cloudflare\n1 < CF-RAY: 817b59437a62d9d1-MIA\n{\"page\":1,\"per_page\":6,\"total\":12,\"total_pages\":2,\"data\":[{\"id\":1,\"name\":\"cerulean\",\"year\":2000,\"color\":\"#98B2D1\",\"pantone_value\":\"15-4020\"},{\"id\":2,\"name\":\"fuchsia rose\",\"year\":2001,\"color\":\"#C74375\",\"pantone_value\":\"17-2031\"},{\"id\":3,\"name\":\"true red\",\"year\":2002,\"color\":\"#BF1932\",\"pantone_value\":\"19-1664\"},{\"id\":4,\"name\":\"aqua sky\",\"year\":2003,\"color\":\"#7BC4C4\",\"pantone_value\":\"14-4811\"},{\"id\":5,\"name\":\"tigerlily\",\"year\":2004,\"color\":\"#E2583E\",\"pantone_value\":\"17-1456\"},{\"id\":6,\"name\":\"blue turquoise\",\"year\":2005,\"color\":\"#53B0AE\",\"pantone_value\":\"15-5217\"}],\"support\":{\"url\":\"https:\/\/reqres.in\/#support-heading\",\"text\":\"To keep ReqRes free, contributions towards server costs are appreciated!\"}}\n\n"},{"result":{"nanos":16900,"startTime":1697575173084,"endTime":1697575173084,"millis":0.0169,"status":"passed"},"step":{"line":12,"prefix":"Then","index":3,"text":"status 200"}},{"result":{"nanos":38075900,"startTime":1697575173084,"endTime":1697575173122,"millis":38.0759,"status":"passed"},"step":{"line":13,"prefix":"And","index":4,"text":"match $ == jsonRes"}}],"executorName":"main","line":8,"name":"get list of users","description":"","durationMillis":1512.7196,"startTime":1697575171591,"failed":false,"refId":"[2:8]","endTime":1697575173122,"exampleIndex":-1}],"callDepth":0,"name":"get user on reqres","description":"","resultDate":"2023-10-17 03:39:33 p. m.","durationMillis":1512.7196,"passedCount":1}