{"failedCount":0,"prefixedPath":"src\/test\/java\/users\/get\/get-user.feature","packageQualifiedName":"src.test.java.users.get.get-user","loopIndex":-1,"relativePath":"src\/test\/java\/users\/get\/get-user.feature","scenarioResults":[{"sectionIndex":1,"stepResults":[{"result":{"nanos":257523100,"startTime":1697575141276,"endTime":1697575141534,"millis":257.5231,"status":"passed"},"step":{"line":9,"prefix":"*","index":0,"text":"def jsonRes = read(\"..\/json\/list_users.json\")"}},{"result":{"nanos":782800,"startTime":1697575141535,"endTime":1697575141536,"millis":0.7828,"status":"passed"},"step":{"line":10,"prefix":"Given","index":1,"text":"url \"https:\/\/reqres.in\/api\/user?page=1\""}},{"result":{"nanos":1405563300,"startTime":1697575141536,"endTime":1697575142942,"millis":1405.5633,"status":"passed"},"step":{"line":11,"prefix":"When","index":2,"text":"method get"},"stepLog":"15:39:02.298 request:\n1 > GET https:\/\/reqres.in\/api\/user?page=1\n1 > Host: reqres.in\n1 > Connection: Keep-Alive\n1 > User-Agent: Apache-HttpClient\/4.5.14 (Java\/11.0.20.1)\n1 > Accept-Encoding: gzip,deflate\n\n\n15:39:02.935 response time in milliseconds: 633\n1 < 200\n1 < Date: Tue, 17 Oct 2023 20:38:32 GMT\n1 < Content-Type: application\/json; charset=utf-8\n1 < Transfer-Encoding: chunked\n1 < Connection: keep-alive\n1 < X-Powered-By: Express\n1 < Access-Control-Allow-Origin: *\n1 < Etag: W\/\"2c1-N6Rqerxquq2kgQhL51EiSg4x0R8\"\n1 < Via: 1.1 vegur\n1 < Cache-Control: max-age=14400\n1 < CF-Cache-Status: MISS\n1 < Report-To: {\"endpoints\":[{\"url\":\"https:\\\/\\\/a.nel.cloudflare.com\\\/report\\\/v3?s=yiw%2FaLiAo%2FvyN6JgOj0fF%2BVA2Z20L6z%2FqS2DwKyTrT%2BOYo6l1xqJpkwzV4XV164Av2fYGjhXerUACGj403RxTcuw2p2BQiFw7tfWXQkZ7ZXAaMELpGXb4G9v5g%3D%3D\"}],\"group\":\"cf-nel\",\"max_age\":604800}\n1 < NEL: {\"success_fraction\":0,\"report_to\":\"cf-nel\",\"max_age\":604800}\n1 < Vary: Accept-Encoding\n1 < Server: cloudflare\n1 < CF-RAY: 817b5885dfba06f4-ATL\n{\"page\":1,\"per_page\":6,\"total\":12,\"total_pages\":2,\"data\":[{\"id\":1,\"name\":\"cerulean\",\"year\":2000,\"color\":\"#98B2D1\",\"pantone_value\":\"15-4020\"},{\"id\":2,\"name\":\"fuchsia rose\",\"year\":2001,\"color\":\"#C74375\",\"pantone_value\":\"17-2031\"},{\"id\":3,\"name\":\"true red\",\"year\":2002,\"color\":\"#BF1932\",\"pantone_value\":\"19-1664\"},{\"id\":4,\"name\":\"aqua sky\",\"year\":2003,\"color\":\"#7BC4C4\",\"pantone_value\":\"14-4811\"},{\"id\":5,\"name\":\"tigerlily\",\"year\":2004,\"color\":\"#E2583E\",\"pantone_value\":\"17-1456\"},{\"id\":6,\"name\":\"blue turquoise\",\"year\":2005,\"color\":\"#53B0AE\",\"pantone_value\":\"15-5217\"}],\"support\":{\"url\":\"https:\/\/reqres.in\/#support-heading\",\"text\":\"To keep ReqRes free, contributions towards server costs are appreciated!\"}}\n\n"},{"result":{"nanos":19800,"startTime":1697575142942,"endTime":1697575142942,"millis":0.0198,"status":"passed"},"step":{"line":12,"prefix":"Then","index":3,"text":"status 200"}},{"result":{"nanos":37299800,"startTime":1697575142942,"endTime":1697575142979,"millis":37.2998,"status":"passed"},"step":{"line":13,"prefix":"And","index":4,"text":"match $ == jsonRes"}}],"executorName":"main","line":8,"name":"get list of users","description":"","durationMillis":1701.1888,"startTime":1697575141260,"failed":false,"refId":"[2:8]","endTime":1697575142979,"exampleIndex":-1}],"callDepth":0,"name":"get user on reqres","description":"","resultDate":"2023-10-17 03:39:02 p. m.","durationMillis":1701.1888,"passedCount":1}